<svg xmlns="http://www.w3.org/2000/svg" width="32" height="32" viewBox="0 0 32 32" fill="#3a76f0">
	<circle cx="16" cy="16" r="16"/> <path d="m.801 27.673.947-4.4 6.773 6.871-4.214.944c-2.845.75-4.01-1.536-3.506-3.415Z"/>
	<path fill="#fff" d="M15.095 1.951A14.087 14.087 0 0 0 9.81 3.355l.941 1.63a12.2 12.2 0 0 1 4.344-1.152zm1.878.005v1.882c1.501.12 2.97.517 4.33 1.173l.94-1.63a14.077 14.077 0 0 0-5.27-1.425zM8.182 4.292A14.078 14.078 0 0 0 4.306 8.16l1.629.94h.001a12.2 12.2 0 0 1 3.186-3.18Zm15.685.032-.941 1.632a12.2 12.2 0 0 1 2.821 2.703c.116.154.228.311.336.47l1.63-.941a14.078 14.078 0 0 0-3.846-3.864zm-7.5 1.38a10.3 10.3 0 0 0-5.606 1.425 10.305 10.305 0 0 0-3.483 14.354l-.991 4.227 4.225-.99a10.299 10.299 0 0 0 4.471 1.534 10.305 10.305 0 0 0 10.918-7.4 10.302 10.302 0 0 0-5.306-12.075 10.3 10.3 0 0 0-4.229-1.075Zm-13 4.083a14.084 14.084 0 0 0-1.416 5.291h1.882a12.202 12.202 0 0 1 1.162-4.35Zm25.282.03-1.631.942a12.2 12.2 0 0 1 1.149 4.32h1.882a14.088 14.088 0 0 0-1.4-5.262Zm-26.695 7.14a14.08 14.08 0 0 0 1.155 4.7l1.991-.172a12.201 12.201 0 0 1-1.265-4.528Zm26.211 0a12.204 12.204 0 0 1-.44 2.423 12.197 12.197 0 0 1-.72 1.89l1.63.94a14.075 14.075 0 0 0 1.41-5.253zm-2.1 5.94c-.327.48-.69.932-1.084 1.362a12.195 12.195 0 0 1-2.07 1.797l.941 1.63a14.072 14.072 0 0 0 3.843-3.848zm-20.593.44-1.97.173-1.008 4.3a1.405 1.405 0 0 0 1.688 1.688L8.66 28.45l.55-2.058-4.716 1.106zm15.814 3.66a12.136 12.136 0 0 1-4.313 1.165v1.882a14.076 14.076 0 0 0 5.254-1.417zm-10.323.114-.491 1.835a14.077 14.077 0 0 0 4.623 1.103v-1.882a12.2 12.2 0 0 1-4.132-1.056z"/>
</svg>

